<svg width="9" height="13" viewBox="0 0 9 13" fill="none" xmlns="http://www.w3.org/2000/svg">
<path d="M4.742 6.5L8.9855 10.742L6.8645 12.8645L0.5 6.5L6.8645 0.135498L8.9855 2.258L4.742 6.5Z" fill="#03053D"/>
</svg>
